…
R dataframes are similar to Pandas dataframes. Since we are working mostly with the tidyverse, I also need to mention tibbles. Tibbles and dataframes are pretty similar in practice, but tibbles have a few nicer features. The features are nice enough that I would say always use a tibble when explicitly creating something, but you don't need to be in constant panic about whether something is a dataframe or tibble (although if you need to check, use `class()`). Tidyverse functions output tibbles. You can also convert a dataframe to a tibble with `as_tibble()`. Almost any function that works on a dataframe will work on a tibble.

```r
# creating a tibble
tbl <- tibble(letter = LETTERS, 
              number = c(1:26), 
              group = c(rep("first", 8), 
                        rep("second", 10), rep("third", 8)))
tbl
```

```
## # A tibble: 26 × 3
##    letter number group 
##    <chr>   <int> <chr> 
##  1 A           1 first 
##  2 B           2 first 
##  3 C           3 first 
##  4 D           4 first 
##  5 E           5 first 
##  6 F           6 first 
##  7 G           7 first 
##  8 H           8 first 
##  9 I           9 second
## 10 J          10 second
## # … with 16 more rows
```
…
```
## # A tibble: 1 × 1
##   group
##   <chr>
## 1 first
```


```r
# choose whole column by position (first column in this case)
tbl[,1]
```

```
## # A tibble: 26 × 1
##    letter
##    <chr> 
##  1 A     
##  2 B     
##  3 C     
##  4 D     
##  5 E     
##  6 F     
##  7 G     
##  8 H     
##  9 I     
## 10 J     
## # … with 16 more rows
```


```r
# choose whole column by name
tbl[,"group"]
```

```
## # A tibble: 26 × 1
##    group 
##    <chr> 
##  1 first 
##  2 first 
##  3 first 
##  4 first 
##  5 first 
##  6 first 
##  7 first 
##  8 first 
##  9 second
## 10 second
## # … with 16 more rows
```
…
You can set column names with `colnames()` or change them from what they currently are.

```r
# changing colnames 
colnames(tbl) <- c("Letter", "Number", "Group")
tbl
```

```
## # A tibble: 26 × 3
##    Letter Number Group 
##    <chr>   <int> <chr> 
##  1 A           1 first 
##  2 B           2 first 
##  3 C           3 first 
##  4 D           4 first 
##  5 E           5 first 
##  6 F           6 first 
##  7 G           7 first 
##  8 H           8 first 
##  9 I           9 second
## 10 J          10 second
## # … with 16 more rows
```
…
### Data transformation (dplyr)
This section contains the main `dplyr` functions, which help you transform data. The tidyverse package has some nice built-in data sets to help practice and teach functions, so I am going to use one of those data sets, `msleep`. The `msleep` data set contains the sleep times and weights of a set of mammals, along with their genus, order, and `vore` which tells you their diet type.


```r
# look at our msleep dataset
msleep
```

```
## # A tibble: 83 × 11
##    name   genus vore  order conservation sleep_total sleep_rem sleep_cycle awake
##    <chr>  <chr> <chr> <chr> <chr>              <dbl>     <dbl>       <dbl> <dbl>
##  1 Cheet… Acin… carni Carn… lc                  12.1      NA        NA      11.9
##  2 Owl m… Aotus omni  Prim… <NA>                17         1.8      NA       7  
##  3 Mount… Aplo… herbi Rode… nt                  14.4       2.4      NA       9.6
##  4 Great… Blar… omni  Sori… lc                  14.9       2.3       0.133   9.1
##  5 Cow    Bos   herbi Arti… domesticated         4         0.7       0.667  20  
##  6 Three… Brad… herbi Pilo… <NA>                14.4       2.2       0.767   9.6
##  7 North… Call… carni Carn… vu                   8.7       1.4       0.383  15.3
##  8 Vespe… Calo… <NA>  Rode… <NA>                 7        NA        NA      17  
##  9 Dog    Canis carni Carn… domesticated        10.1       2.9       0.333  13.9
## 10 Roe d… Capr… herbi Arti… lc                   3        NA        NA      21  
## # … with 73 more rows, and 2 more variables: brainwt <dbl>, bodywt <dbl>
```
…
And here is an example of OR filtering to find mammals that are herbivores or omnivores. The `|` is the or operator.

```r
# find mammals that are either herbivores or omnivores
plant_eaters <- filter(msleep, vore == "herbi" | vore == "omni")
plant_eaters
```

```
## # A tibble: 52 × 11
##    name   genus vore  order conservation sleep_total sleep_rem sleep_cycle awake
##    <chr>  <chr> <chr> <chr> <chr>              <dbl>     <dbl>       <dbl> <dbl>
##  1 Owl m… Aotus omni  Prim… <NA>                17         1.8      NA       7  
##  2 Mount… Aplo… herbi Rode… nt                  14.4       2.4      NA       9.6
##  3 Great… Blar… omni  Sori… lc                  14.9       2.3       0.133   9.1
##  4 Cow    Bos   herbi Arti… domesticated         4         0.7       0.667  20  
##  5 Three… Brad… herbi Pilo… <NA>                14.4       2.2       0.767   9.6
##  6 Roe d… Capr… herbi Arti… lc                   3        NA        NA      21  
##  7 Goat   Capri herbi Arti… lc                   5.3       0.6      NA      18.7
##  8 Guine… Cavis herbi Rode… domesticated         9.4       0.8       0.217  14.6
##  9 Grivet Cerc… omni  Prim… lc                  10         0.7      NA      14  
## 10 Chinc… Chin… herbi Rode… domesticated        12.5       1.5       0.117  11.5
## # … with 42 more rows, and 2 more variables: brainwt <dbl>, bodywt <dbl>
```

Another way to filter for only herbivores/omnivores is to use `%in%`. You cannot use `vore == c("herbi", "omni")`. If you do, R will recycle the c("herbi", "omni") vector so that the first row would be kept if vore == "herbi", second row would be kept if vore == "omni", and so on and so forth. Using `%in%` ensures each row is compared to all vector elements (i.e. "herbi" AND "omni"). Vector recycling is a normal part of R, see next code chunk for example.

```r
# equivalent to above
plant_eaters <- filter(msleep, vore %in% c("herbi", "omni"))
plant_eaters
```

```
## # A tibble: 52 × 11
##    name   genus vore  order conservation sleep_total sleep_rem sleep_cycle awake
##    <chr>  <chr> <chr> <chr> <chr>              <dbl>     <dbl>       <dbl> <dbl>
##  1 Owl m… Aotus omni  Prim… <NA>                17         1.8      NA       7  
##  2 Mount… Aplo… herbi Rode… nt                  14.4       2.4      NA       9.6
##  3 Great… Blar… omni  Sori… lc                  14.9       2.3       0.133   9.1
##  4 Cow    Bos   herbi Arti… domesticated         4         0.7       0.667  20  
##  5 Three… Brad… herbi Pilo… <NA>                14.4       2.2       0.767   9.6
##  6 Roe d… Capr… herbi Arti… lc                   3        NA        NA      21  
##  7 Goat   Capri herbi Arti… lc                   5.3       0.6      NA      18.7
##  8 Guine… Cavis herbi Rode… domesticated         9.4       0.8       0.217  14.6
##  9 Grivet Cerc… omni  Prim… lc                  10         0.7      NA      14  
## 10 Chinc… Chin… herbi Rode… domesticated        12.5       1.5       0.117  11.5
## # … with 42 more rows, and 2 more variables: brainwt <dbl>, bodywt <dbl>
```
…
```
## [1] 1 4 3 8
```

Knowing `is.na()` and that `!` means "not" is helpful.

```r
# this gets all data that is not missing conservation status
# (conservation is not NA)
has_conservation <- msleep %>% filter(!is.na(conservation))
has_conservation
```

```
## # A tibble: 54 × 11
##    name   genus vore  order conservation sleep_total sleep_rem sleep_cycle awake
##    <chr>  <chr> <chr> <chr> <chr>              <dbl>     <dbl>       <dbl> <dbl>
##  1 Cheet… Acin… carni Carn… lc                  12.1      NA        NA      11.9
##  2 Mount… Aplo… herbi Rode… nt                  14.4       2.4      NA       9.6
##  3 Great… Blar… omni  Sori… lc                  14.9       2.3       0.133   9.1
##  4 Cow    Bos   herbi Arti… domesticated         4         0.7       0.667  20  
##  5 North… Call… carni Carn… vu                   8.7       1.4       0.383  15.3
##  6 Dog    Canis carni Carn… domesticated        10.1       2.9       0.333  13.9
##  7 Roe d… Capr… herbi Arti… lc                   3        NA        NA      21  
##  8 Goat   Capri herbi Arti… lc                   5.3       0.6      NA      18.7
##  9 Guine… Cavis herbi Rode… domesticated         9.4       0.8       0.217  14.6
## 10 Grivet Cerc… omni  Prim… lc                  10         0.7      NA      14  
## # … with 44 more rows, and 2 more variables: brainwt <dbl>, bodywt <dbl>
```


#### Arrange - for ordering the rows
Arrange orders the tibble by the columns you choose in the order you put them.

```r
# order by sleep_total, then sleep_rem 
# (can order by as many as you want in the order you put them)
arrange(msleep, sleep_total, sleep_rem)
```

```
## # A tibble: 83 × 11
##    name   genus vore  order conservation sleep_total sleep_rem sleep_cycle awake
##    <chr>  <chr> <chr> <chr> <chr>              <dbl>     <dbl>       <dbl> <dbl>
##  1 Giraf… Gira… herbi Arti… cd                   1.9       0.4      NA      22.1
##  2 Pilot… Glob… carni Ceta… cd                   2.7       0.1      NA      21.4
##  3 Horse  Equus herbi Peri… domesticated         2.9       0.6       1      21.1
##  4 Roe d… Capr… herbi Arti… lc                   3        NA        NA      21  
##  5 Donkey Equus herbi Peri… domesticated         3.1       0.4      NA      20.9
##  6 Afric… Loxo… herbi Prob… vu                   3.3      NA        NA      20.7
##  7 Caspi… Phoca carni Carn… vu                   3.5       0.4      NA      20.5
##  8 Sheep  Ovis  herbi Arti… domesticated         3.8       0.6      NA      20.2
##  9 Asian… Elep… herbi Prob… en                   3.9      NA        NA      20.1
## 10 Cow    Bos   herbi Arti… domesticated         4         0.7       0.667  20  
## # … with 73 more rows, and 2 more variables: brainwt <dbl>, bodywt <dbl>
```

By default `arrange()` orders in ascending order, use `desc()` to get descending order.

```r
# descending order
arrange(msleep, desc(sleep_total), desc(sleep_rem))
```

```
## # A tibble: 83 × 11
##    name   genus vore  order conservation sleep_total sleep_rem sleep_cycle awake
##    <chr>  <chr> <chr> <chr> <chr>              <dbl>     <dbl>       <dbl> <dbl>
##  1 Littl… Myot… inse… Chir… <NA>                19.9       2         0.2     4.1
##  2 Big b… Epte… inse… Chir… lc                  19.7       3.9       0.117   4.3
##  3 Thick… Lutr… carni Dide… lc                  19.4       6.6      NA       4.6
##  4 Giant… Prio… inse… Cing… en                  18.1       6.1      NA       5.9
##  5 North… Dide… omni  Dide… lc                  18         4.9       0.333   6  
##  6 Long-… Dasy… carni Cing… lc                  17.4       3.1       0.383   6.6
##  7 Owl m… Aotus omni  Prim… <NA>                17         1.8      NA       7  
##  8 Arcti… Sper… herbi Rode… lc                  16.6      NA        NA       7.4
##  9 Golde… Sper… herbi Rode… lc                  15.9       3        NA       8.1
## 10 Tiger  Pant… carni Carn… en                  15.8      NA        NA       8.2
## # … with 73 more rows, and 2 more variables: brainwt <dbl>, bodywt <dbl>
```

#### Select - for choosing columns

```r
# select all columns name to conservation (name, genus, vore, order)
smaller_msleep <- select(msleep, name:conservation)
# this is equivalent, since name, genus, vore, order are the first four columns
smaller_msleep <- select(msleep, 1:4)
smaller_msleep
```

```
## # A tibble: 83 × 4
##    name                       genus       vore  order       
##    <chr>                      <chr>       <chr> <chr>       
##  1 Cheetah                    Acinonyx    carni Carnivora   
##  2 Owl monkey                 Aotus       omni  Primates    
##  3 Mountain beaver            Aplodontia  herbi Rodentia    
##  4 Greater short-tailed shrew Blarina     omni  Soricomorpha
##  5 Cow                        Bos         herbi Artiodactyla
##  6 Three-toed sloth           Bradypus    herbi Pilosa      
##  7 Northern fur seal          Callorhinus carni Carnivora   
##  8 Vesper mouse               Calomys     <NA>  Rodentia    
##  9 Dog                        Canis       carni Carnivora   
## 10 Roe deer                   Capreolus   herbi Artiodactyla
## # … with 73 more rows
```


```r
# select all columns except vore
no_vore <- select(msleep, -vore)
no_vore
```

```
## # A tibble: 83 × 10
##    name       genus  order  conservation sleep_total sleep_rem sleep_cycle awake
##    <chr>      <chr>  <chr>  <chr>              <dbl>     <dbl>       <dbl> <dbl>
##  1 Cheetah    Acino… Carni… lc                  12.1      NA        NA      11.9
##  2 Owl monkey Aotus  Prima… <NA>                17         1.8      NA       7  
##  3 Mountain … Aplod… Roden… nt                  14.4       2.4      NA       9.6
##  4 Greater s… Blari… Soric… lc                  14.9       2.3       0.133   9.1
##  5 Cow        Bos    Artio… domesticated         4         0.7       0.667  20  
##  6 Three-toe… Brady… Pilosa <NA>                14.4       2.2       0.767   9.6
##  7 Northern … Callo… Carni… vu                   8.7       1.4       0.383  15.3
##  8 Vesper mo… Calom… Roden… <NA>                 7        NA        NA      17  
##  9 Dog        Canis  Carni… domesticated        10.1       2.9       0.333  13.9
## 10 Roe deer   Capre… Artio… lc                   3        NA        NA      21  
## # … with 73 more rows, and 2 more variables: brainwt <dbl>, bodywt <dbl>
```


```r
# select all columns except brainwt and bodywt
no_wt <- select(msleep, -brainwt, -bodywt)
no_wt
```

```
## # A tibble: 83 × 9
##    name   genus vore  order conservation sleep_total sleep_rem sleep_cycle awake
##    <chr>  <chr> <chr> <chr> <chr>              <dbl>     <dbl>       <dbl> <dbl>
##  1 Cheet… Acin… carni Carn… lc                  12.1      NA        NA      11.9
##  2 Owl m… Aotus omni  Prim… <NA>                17         1.8      NA       7  
##  3 Mount… Aplo… herbi Rode… nt                  14.4       2.4      NA       9.6
##  4 Great… Blar… omni  Sori… lc                  14.9       2.3       0.133   9.1
##  5 Cow    Bos   herbi Arti… domesticated         4         0.7       0.667  20  
##  6 Three… Brad… herbi Pilo… <NA>                14.4       2.2       0.767   9.6
##  7 North… Call… carni Carn… vu                   8.7       1.4       0.383  15.3
##  8 Vespe… Calo… <NA>  Rode… <NA>                 7        NA        NA      17  
##  9 Dog    Canis carni Carn… domesticated        10.1       2.9       0.333  13.9
## 10 Roe d… Capr… herbi Arti… lc                   3        NA        NA      21  
## # … with 73 more rows
```


```r
# select specific columns 
choice_cols <- select(msleep, name, order, conservation)
choice_cols
```

```
## # A tibble: 83 × 3
##    name                       order        conservation
##    <chr>                      <chr>        <chr>       
##  1 Cheetah                    Carnivora    lc          
##  2 Owl monkey                 Primates     <NA>        
##  3 Mountain beaver            Rodentia     nt          
##  4 Greater short-tailed shrew Soricomorpha lc          
##  5 Cow                        Artiodactyla domesticated
##  6 Three-toed sloth           Pilosa       <NA>        
##  7 Northern fur seal          Carnivora    vu          
##  8 Vesper mouse               Rodentia     <NA>        
##  9 Dog                        Carnivora    domesticated
## 10 Roe deer                   Artiodactyla lc          
## # … with 73 more rows
```
…
* `num_range("x", 1:3)`: matches x1, x2 and x3. A more realistic example would maybe look like num_range("wk", 10:13) to select columns called wk10, wk11, wk12, wk13

* `stringr` is a great package for working with strings

Select can also be used to reaarange columns, since they are placed in the order you choose them in. If you only care about a few columns being first, you can use `everything()` to select everything not already explicitly stated.

```r
# for whatever reason you want sleep_total to be first col, sleep_rem to be second col, 
# and don't care about the order of the rest
# this slects sleep_total first, sleep_rem second, then everything() selects everything else
select(msleep, sleep_total, sleep_rem, everything())
```

```
## # A tibble: 83 × 11
##    sleep_total sleep_rem name   genus vore  order conservation sleep_cycle awake
##          <dbl>     <dbl> <chr>  <chr> <chr> <chr> <chr>              <dbl> <dbl>
##  1        12.1      NA   Cheet… Acin… carni Carn… lc                NA      11.9
##  2        17         1.8 Owl m… Aotus omni  Prim… <NA>              NA       7  
##  3        14.4       2.4 Mount… Aplo… herbi Rode… nt                NA       9.6
##  4        14.9       2.3 Great… Blar… omni  Sori… lc                 0.133   9.1
##  5         4         0.7 Cow    Bos   herbi Arti… domesticated       0.667  20  
##  6        14.4       2.2 Three… Brad… herbi Pilo… <NA>               0.767   9.6
##  7         8.7       1.4 North… Call… carni Carn… vu                 0.383  15.3
##  8         7        NA   Vespe… Calo… <NA>  Rode… <NA>              NA      17  
##  9        10.1       2.9 Dog    Canis carni Carn… domesticated       0.333  13.9
## 10         3        NA   Roe d… Capr… herbi Arti… lc                NA      21  
## # … with 73 more rows, and 2 more variables: brainwt <dbl>, bodywt <dbl>
```

#### Rename - for changing column names

```r
# rename the "sleep_total" column "total_sleep"
msleep <- rename(msleep, total_sleep = sleep_total)
msleep
```

```
## # A tibble: 83 × 11
##    name   genus vore  order conservation total_sleep sleep_rem sleep_cycle awake
##    <chr>  <chr> <chr> <chr> <chr>              <dbl>     <dbl>       <dbl> <dbl>
##  1 Cheet… Acin… carni Carn… lc                  12.1      NA        NA      11.9
##  2 Owl m… Aotus omni  Prim… <NA>                17         1.8      NA       7  
##  3 Mount… Aplo… herbi Rode… nt                  14.4       2.4      NA       9.6
##  4 Great… Blar… omni  Sori… lc                  14.9       2.3       0.133   9.1
##  5 Cow    Bos   herbi Arti… domesticated         4         0.7       0.667  20  
##  6 Three… Brad… herbi Pilo… <NA>                14.4       2.2       0.767   9.6
##  7 North… Call… carni Carn… vu                   8.7       1.4       0.383  15.3
##  8 Vespe… Calo… <NA>  Rode… <NA>                 7        NA        NA      17  
##  9 Dog    Canis carni Carn… domesticated        10.1       2.9       0.333  13.9
## 10 Roe d… Capr… herbi Arti… lc                   3        NA        NA      21  
## # … with 73 more rows, and 2 more variables: brainwt <dbl>, bodywt <dbl>
```
…
